{
  "xclbin-location": "/usr/lib/dpu.xclbin",
  "vvas-library-repo": "/usr/lib/vvas",
  "element-mode": "transform",
  "kernels": [
    {
      "kernel-name": "v_multi_scaler:v_multi_scaler_1",
      "library-name": "libvvas_xpreprocessor.so",
      "config": {
      }
    }
  ]
}
