{
  "xclbin-location":"/usr/lib/dpu.xclbin",
  "vvas-library-repo": "/usr/local/lib/vvas",
  "element-mode":"inplace",
  "kernels" :[
    {
      "library-name":"libvvas_xboundingbox.so",
      "config": {
        "font_size" : 0.5,
        "font" : 3,
        "thickness" : 2,
        "debug_level" : 2,
        "label_color" : { "blue" : 0, "green" : 0, "red" : 0 },
        "y_offset" : 0,
        "label_filter" : [ "class", "probability" ],
        "classes" : [
          {
            "name" : "car",
            "blue" : 255,
            "green" : 0,
            "red"  : 0
          },
          {
            "name" : "person",
            "blue" : 0,
            "green" : 255,
            "red"  : 0
          },
          {
            "name" : "bus",
            "blue" : 0,
            "green" : 0,
            "red"  : 255
          },
          {
            "name" : "bicycle",
            "blue" : 0,
            "green" : 0,
            "red"  : 255
          }
        ]
      }
    }
  ]
}
