{
  "xclbin-location":"/usr/lib/dpu.xclbin",
  "vvas-library-repo": "/usr/lib/",
  "element-mode":"inplace",
  "kernels" :[
    {
      "library-name":"libvvas_xdpuinfer.so",
      "config": {
        "model-name" : "yolov2_voc",
        "model-class" : "YOLOV2",
        "model-format" : "RGB",
        "model-path" : "/usr/share/vitis_ai_library/models/",
        "run_time_model" : false,
        "need_preprocess" : true,
        "performance_test" : true,
        "debug_level" : 2
      }
    }
  ]
}
